{
	"type": ["object", "array"],
	"$schema": "http://json-schema.org/draft-04/schema",
	"properties": {
		"identifier": {
			"type": "string"
		},
		"pub_resourceManifest": {
			"type": "array",
			"minItems": 1,
			"items": {
				"type": "string",
				"pattern": "^\\[\\[ADP\\]\\][0-9]+_[0-9]+_[0-9].*$"
			}
		},
		"pub_schemaVersion": {
			"type": "number"
		},
		"testPart": {
			"type": "array",
			"items": {
				"type": "object",
				"properties": {
					"navigationMode": {
						"type": "string",
						"enum": ["linear", "nonlinear"],
						"_default": "nonlinear"
					},
					"submissionMode": {
						"type": "string",
						"enum": ["individual", "simultaneous"],
						"_default": "simultaneous"
					},
					"timeLimits": {
						"$ref": "#/definitions/basic/timeLimits"
					},
					"itemSessionControl": {
						"$ref": "#/definitions/itemSessionControl"
					},
					"assessmentSection": {
						"type": "array",
						"items": {
							"type": "object",
							"properties": {
								"identifier": {
									"type": "string"
								},
								"itemSessionControl": {
									"$ref": "#/definitions/itemSessionControl"
								},
								"assessmentItem": {
									"type": "array",
									"items": {
										"type": "object",
										"properties": {
											"assessmentItemContent": {
												"type": "object",
												"properties": {
													"data": {
														"type": "object",
														"properties": {
															"apipAccessibility": {
																"type": "string"
															},
															"schemaLocations": {
																"$ref": "#/definitions/basic/schemaLocations"
															},
															"attributes": {
																"$ref": "#/definitions/basic/attributes"
															},
															"body": {
																"type": "object",
																"properties": {
																	"elements": {
																		"type": "object",
																		"additionalProperties": {
																			"type": "object",
																			"properties": {
																				"annotations": {
																					"$ref": "#/definitions/basic/annotations"
																				},
																				"attributes": {
																					"$ref": "#/definitions/basic/attributes"
																				},
																				"body": {
																					"oneOf": [{
																							"$ref": "#/definitions/basic/body"
																						}, {
																							"$ref": "#/definitions/body_object"
																						}
																					]
																				},
																				"choices": {
																					"oneOf": [{
																							"$ref": "#/definitions/choice_object"
																						}, {
																							"type": "array",
																							"items": {
																								"$ref": "#/definitions/choice_object"
																							}
																						}
																					]
																				},
																				"gapImgs": {
																					"$ref": "#/definitions/choice_object"
																				},
																				"mathML": {
																					"$ref": "#/definitions/basic/mathML"
																				},
																				"object": {
																					"$ref": "#/definitions/data_object"
																				},
																				"prompt": {
																					"type": "object",
																					"properties": {
																						"serial": {
																							"$ref": "#/definitions/basic/serial"
																						},
																						"body": {
																							"$ref": "#/definitions/basic/body"
																						},
																						"elements": {
																							"type": "object",
																							"additionalProperties": {
																								"type": "object",
																								"properties": {
																									"serial": {
																										"$ref": "#/definitions/basic/serial"
																									},
																									"qtiClass": {
																										"$ref": "#/definitions/basic/qtiClass"
																									},
																									"attributes": {
																										"$ref": "#/definitions/basic/attributes"
																									},
																									"mathML": {
																										"$ref": "#/definitions/basic/mathML"
																									},
																									"annotations": {
																										"$ref": "#/definitions/basic/annotations"
																									}
																								},
																								"additionalProperties": false
																							}
																						}
																					},
																					"required": ["serial", "elements"]
																				},
																				"typeIdentifier": {
																					"type": "string"
																				},
																				"markup": {
																					"type": "string"
																				},
																				"libraries": {
																					"$ref": "#/definitions/basic/libraries"
																				},
																				"properties": {
																					"type": "object"
																				},
																				"entryPoint": {
																					"type": "string"
																				},
																				"serial": {
																					"$ref": "#/definitions/basic/serial"
																				},
																				"qtiClass": {
																					"$ref": "#/definitions/basic/qtiClass"
																				}
																			},
																			"required": ["serial", "qtiClass", "attributes"],
																			"additionalProperties": false
																		}
																	}
																},
																"required": ["serial", "body", "elements"]
															},
															"identifier": {
																"$ref": "#/definitions/basic/identifier"
															},
															"namespaces": {
																"$ref": "#/definitions/basic/namespaces"
															},
															"outcomes": {
																"type": "object",
																"additionalProperties": {
																	"type": "object",
																	"properties": {
																		"identifier": {
																			"$ref": "#/definitions/basic/identifier"
																		},
																		"serial": {
																			"$ref": "#/definitions/basic/serial"
																		},
																		"qtiClass": {
																			"$ref": "#/definitions/basic/qtiClass"
																		},
																		"attributes": {
																			"$ref": "#/definitions/basic/attributes"
																		},
																		"defaultValue": {
																			"$ref": "#/definitions/basic/defaultValue"
																		}
																	},
																	"required": ["identifier", "serial", "qtiClass", "attributes", "defaultValue"],
																	"additionalProperties": false
																}
															},
															"qtiClass": {
																"$ref": "#/definitions/basic/qtiClass"
															},
															"responses": {
																"type": "object",
																"additionalProperties": {
																	"type": "object",
																	"properties": {
																		"identifier": {
																			"$ref": "#/definitions/basic/identifier"
																		},
																		"serial": {
																			"$ref": "#/definitions/basic/serial"
																		},
																		"qtiClass": {
																			"$ref": "#/definitions/basic/qtiClass"
																		},
																		"attributes": {
																			"$ref": "#/definitions/basic/attributes"
																		},
																		"correctResponses": {
																			"$ref": "#/definitions/basic/correctResponses"
																		},
																		"mapping": {
																			"oneOf": [{
																					"$ref": "#/definitions/empty/array"
																				}, {
																					"type": "object",
																					"additionalProperties": {
																						"type": "string"
																					}
																				}
																			]
																		},
																		"areaMapping": {
																			"$ref": "#/definitions/basic/areaMapping"
																		},
																		"howMatch": {
																			"$ref": "#/definitions/basic/howMatch"
																		},
																		"mappingAttributes": {
																			"type": "object",
																			"properties": {
																				"defaultValue": {
																					"$ref": "#/definitions/basic/defaultValue"
																				}
																			},
																			"required": ["defaultValue"]
																		}
																	},
																	"required": ["identifier", "serial", "qtiClass", "attributes", "correctResponses", "mapping", "areaMapping", "howMatch", "mappingAttributes"],
																	"additionalProperties": false
																}
															},
															"responseProcessing": {
																"type": "object",
																"properties": {
																	"serial": {
																		"$ref": "#/definitions/basic/serial"
																	},
																	"qtiClass": {
																		"$ref": "#/definitions/basic/qtiClass"
																	},
																	"attributes": {
																		"$ref": "#/definitions/basic/attributes"
																	},
																	"processingType": {
																		"$ref": "#/definitions/basic/processingType"
																	},
																	"data": {
																		"$ref": "#/definitions/basic/data"
																	},
																	"responseRules": {
																		"type": "array",
																		"items": {
																			"type": "object",
																			"properties": {
																				"qtiClass": {
																					"$ref": "#/definitions/basic/qtiClass"
																				},
																				"responseIf": {
																					"$ref": "#/definitions/responseRules/if"
																				},
																				"responseElse": {
																					"$ref": "#/definitions/responseRules/else"
																				}
																			}
																		}
																	}
																},
																"required": ["serial", "qtiClass", "attributes", "processingType", "responseRules"],
																"additionalProperties": false
															},
															"serial": {
																"$ref": "#/definitions/basic/serial"
															}
														},
														"required": ["identifier", "serial", "qtiClass", "attributes", "body", "namespaces", "outcomes", "responses", "responseProcessing"],
														"additionalProperties": false
													}
												},
												"required": ["data"]
											},
											"category": {
												"type": ["object", "array"],
												"items": {
													"type": "string"
												}
											},
											"itemId": {
												"type": "string"
											},
											"fixed": {
												"type": "boolean",
												"_default": true
											},
											"timeLimits": {
												"$ref": "#/definitions/basic/timeLimits"
											},
											"required": {
												"type": "boolean",
												"_default": true
											},
											"timeDependent": {
												"type": "boolean",
												"_default": false
											},
											"maxScorePoints": {
												"type": "integer"
											},
											"passageType": {
												"type": "string"
											},
											"subclaim": {
												"type": "string"
											},
											"itemGrade": {
												"type": "string"
											},
											"domain": {
												"type": "string"
											},
											"cluster": {
												"type": "string"
											},
											"contentStandard": {
												"type": "string"
											},
											"evidenceStatement": {
												"type": "string"
											},
											"calculator": {
												"type": "string"
											},
											"fluencySkillArea": {
												"type": "string"
											},
											"itemStrand": {
												"type": "string"
											},
											"uin": {
												"type": "string"
											},
											"reportingCategory": {
												"type": "string"
											},
											"questionNo": {
												"type": "string"
											}
										},
										"additionalProperties": false
									}
								},
								"keepTogether": {
									"type": "boolean",
									"_default": true
								},
								"ordering": {
									"type": "object",
									"properties": {
										"shuffle": {
											"type": "boolean",
											"_default": false
										}
									}
								},
								"selection": {
									"type": "object",
									"properties": {
										"select": {
											"type": "number"
										},
										"withReplacement": {
											"type": "boolean",
											"_default": false
										}
									}
								},
								"title": {
									"type": "string"
								},
								"timeLimits": {
									"$ref": "#/definitions/basic/timeLimits"
								},
								"visible": {
									"type": "boolean",
									"_default": true
								}
							},
							"additionalProperties": false
						}
					},
					"identifier": {
						"type": "string"
					}
				},
				"additionalProperties": false
			}
		}
	},
	"definitions": {
		"basic": {
			"annotations": {
				"$ref": "#/definitions/empty/array"
			},
			"areaMapping": {
				"$ref": "#/definitions/empty/array"
			},
			"attributes": {
				"oneOf": [{
						"$ref": "#/definitions/empty/array"
					}, {
						"type": "object",
						"properties": {
							"adaptive": {
								"type": "boolean"
							},
							"alt": {
								"type": "string"
							},
							"alttext": {
								"type": "string"
							},
							"base": {
								"type": "integer"
							},
							"baseType": {
								"type": "string"
							},
							"cardinality": {
								"type": "string"
							},
							"class": {
								"type": "string"
							},
							"coords": {
								"type": "string",
								"pattern": "^(?:[0-9]{1,3},?){1,4}$"
							},
							"data": {
								"type": "string"
							},
							"display": {
								"type": "string"
							},
							"expectedLength": {
								"type": "integer"
							},
							"expectedLines": {
								"type": "integer"
							},
							"fixed": {
								"type": "boolean"
							},
							"format": {
								"type": "string"
							},
							"height": {
								"oneOf": [{
										"type": "integer"
									}, {
										"type": "string"
									}
								]
							},
							"href": {
								"type": "string"
							},
							"id": {
								"type": "string"
							},
							"identifier": {
								"type": "string"
							},
							"interpretation": {
								"type": "string"
							},
							"label": {
								"type": "string"
							},
							"matchMax": {
								"type": "integer"
							},
							"matchMin": {
								"type": "integer"
							},
							"matchGroup": {
								"type": "string"
							},
							"maxAssociations": {
								"type": "integer"
							},
							"maxChoices": {
								"type": "integer"
							},
							"minAssociations": {
								"type": "integer"
							},
							"minChoices": {
								"type": "integer"
							},
							"minStrings": {
								"type": "integer"
							},
							"normalMaximum": {
								"type": "number"
							},
							"normalMinimum": {
								"type": "number"
							},
							"orientation": {
								"type": "string"
							},
							"overflow": {
								"type": "string"
							},
							"pattern": {
								"type": "string"
							},
							"patternMask": {
								"type": "string"
							},
							"placeholderText": {
								"type": "string"
							},
							"required": {
								"type": "boolean"
							},
							"responseIdentifier": {
								"type": "string"
							},
							"shape": {
								"type": "string",
								"enum": ["rect", "circle", "ellipse"]
							},
							"showHide": {
								"type": "string"
							},
							"shuffle": {
								"type": "boolean"
							},
							"src": {
								"type": "string"
							},
							"timeDependent": {
								"type": "boolean"
							},
							"title": {
								"type": "string"
							},
							"toleranceMode": {
								"type": "string"
							},
							"toolName": {
								"type": "string"
							},
							"toolVersion": {
								"type": "string"
							},
							"type": {
								"type": "string"
							},
							"use": {
								"type": "string"
							},
							"view": {
								"type": "array"
							},
							"width": {
								"oneOf": [{
										"type": "integer"
									}, {
										"type": "string"
									}
								]
							},
							"xml:lang": {
								"type": "string"
							}
						},
						"additionalProperties": false
					}
				]
			},
			"body": {
				"type": "string"
			},
			"correctResponses": {
				"type": "array",
				"items": {
					"oneOf": [{
							"type": "string"
						}, {
							"$ref": "#/definitions/empty/object"
						}
					]
				}
			},
			"data": {
				"type": "string"
			},
			"defaultValue": {
				"anyOf": [{
						"type": "null"
					}, {
						"type": "string"
					}, {
						"type": "integer"
					}
				]
			},
			"howMatch": {
				"oneOf": [{
						"type": "null"
					}, {
						"type": "string"
					}
				]
			},
			"identifier": {
				"type": "string"
			},
			"libraries": {
				"type": "array",
				"items": {
					"type": "string"
				}
			},
			"mathML": {
				"type": "string"
			},
			"namespaces": {
				"type": "object",
				"additionalProperties": {
					"type": "string"
				}
			},
			"schemaLocations": {
				"type": "object",
				"additionalProperties": {
					"type": "string"
				}
			},
			"outcomes": {
				"type": "object"
			},
			"processingType": {
				"type": "string"
			},
			"qtiClass": {
				"type": "string"
			},
			"responseElse": {
				"type": "object"
			},
			"responseIf": {
				"type": "object"
			},
			"responseProcessing": {
				"type": "object"
			},
			"responses": {
				"type": "object"
			},
			"serial": {
				"type": "string"
			},
			"timeLimits": {
				"type": "object",
				"properties": {
					"maxTime": {
						"type": "integer"
					}
				},
				"additionalProperties": false
			},
			"value": {
				"type": "string"
			}
		},
		"empty": {
			"array": {
				"type": "array",
				"maxItems": 0
			},
			"object": {
				"type": "object",
				"additionalProperties": false
			}
		},
		"additionalProperties": {
			"oneOf": [{
					"$ref": "#/definitions/empty/array"
				}, {
					"$ref": "#/definitions/empty/object"
				}
			]
		},
		"body_object": {
			"type": "object",
			"properties": {
				"serial": {
					"$ref": "#/definitions/basic/serial"
				},
				"body": {
					"$ref": "#/definitions/basic/body"
				},
				"elements": {
					"type": "object",
					"properties": {
						"serial": {
							"$ref": "#/definitions/basic/serial"
						},
						"qtiClass": {
							"$ref": "#/definitions/basic/qtiClass"
						},
						"attributes": {
							"$ref": "#/definitions/basic/attributes"
						},
						"mathML": {
							"$ref": "#/definitions/basic/mathML"
						},
						"annotations": {
							"$ref": "#/definitions/basic/annotations"
						}
					}
				}
			}
		},
		"choice_object": {
			"type": "object",
			"additionalProperties": {
				"$ref": "#/definitions/data_object"
			}
		},
		"data_object": {
			"type": "object",
			"properties": {
				"identifier": {
					"$ref": "#/definitions/basic/identifier"
				},
				"serial": {
					"$ref": "#/definitions/basic/serial"
				},
				"qtiClass": {
					"$ref": "#/definitions/basic/qtiClass"
				},
				"attributes": {
					"$ref": "#/definitions/basic/attributes"
				},
				"body": {
					"$ref": "#/definitions/body_object"
				}
			},
			"required": ["serial", "qtiClass", "attributes"]
		},
		"responseRules": {
			"if": {
				"allOf": [{
						"$ref": "#/definitions/responseRules/else"
					}, {
						"type": "object",
						"properties": {
							"expression": {
								"type": "object",
								"properties": {
									"qtiClass": {
										"$ref": "#/definitions/basic/qtiClass"
									},
									"expressions": {
										"type": "array",
										"items": {
											"type": "object",
											"properties": {
												"qtiClass": {
													"$ref": "#/definitions/basic/qtiClass"
												},
												"attributes": {
													"$ref": "#/definitions/basic/attributes"
												}
											}
										}
									}
								},
								"required": ["qtiClass", "expressions"]
							}
						},
						"required": ["expression"]
					}
				]
			},
			"else": {
				"type": "object",
				"properties": {
					"qtiClass": {
						"$ref": "#/definitions/basic/qtiClass"
					},
					"responseRules": {
						"type": "array",
						"items": {
							"type": "object",
							"properties": {
								"qtiClass": {
									"$ref": "#/definitions/basic/qtiClass"
								},
								"attributes": {
									"$ref": "#/definitions/basic/attributes"
								},
								"expression": {
									"type": "object",
									"properties": {
										"qtiClass": {
											"$ref": "#/definitions/basic/qtiClass"
										},
										"attributes": {
											"$ref": "#/definitions/basic/attributes"
										},
										"value": {
											"$ref": "#/definitions/basic/value"
										}
									}
								}
							},
							"required": ["qtiClass"]
						}
					}
				},
				"required": ["qtiClass", "responseRules"]
			}
		},
		"itemSessionControl": {
			"type": "object",
			"properties": {
				"allowComment": {
					"type": "boolean",
					"_default": false
				},
				"allowReview": {
					"type": "boolean"
				},
				"allowSkipping": {
					"type": "boolean",
					"_default": true
				},
				"maxAttempts": {
					"type": "number",
					"_default": 0
				},
				"showFeedback": {
					"type": "boolean",
					"_default": false
				},
				"showSolution": {
					"type": "boolean"
				},
				"validateResponses": {
					"type": "boolean"
				}
			},
			"additionalProperties": false
		}
	}
}
